<?xml version="1.0" encoding="UTF-8" standalone="no"?>
<!-- Created with Inkscape (http://www.inkscape.org/) -->
<svg
   xmlns:xml="http://www.w3.org/XML/1998/namespace"
   xmlns:dc="http://purl.org/dc/elements/1.1/"
   xmlns:cc="http://web.resource.org/cc/"
   xmlns:rdf="http://www.w3.org/1999/02/22-rdf-syntax-ns#"
   xmlns:svg="http://www.w3.org/2000/svg"
   xmlns="http://www.w3.org/2000/svg"
   xmlns:sodipodi="http://inkscape.sourceforge.net/DTD/sodipodi-0.dtd"
   xmlns:inkscape="http://www.inkscape.org/namespaces/inkscape"
   inkscape:export-ydpi="90.080002"
   inkscape:export-xdpi="90.080002"
   inkscape:export-filename="/home/ttn/build/tastiera-dura/cose/logo.png"
   width="343pt"
   height="340pt"
   id="svg1291"
   sodipodi:version="0.32"
   inkscape:version="0.41.1"
   sodipodi:docbase="/home/ttn/build/tastiera-dura/cose"
   sodipodi:docname="logo.svg">
  <defs
     id="defs3" />
  <sodipodi:namedview
     id="base"
     pagecolor="#ffffff"
     bordercolor="#666666"
     borderopacity="1.0"
     inkscape:pageopacity="0.0000000"
     inkscape:pageshadow="2"
     inkscape:zoom="2.0188235"
     inkscape:cx="214.37500"
     inkscape:cy="212.50000"
     inkscape:document-units="pt"
     inkscape:current-layer="layer2"
     inkscape:window-width="1278"
     inkscape:window-height="1022"
     inkscape:window-x="0"
     inkscape:window-y="0" />
  <metadata
     id="metadata4">
    <rdf:RDF
       id="RDF5">
      <cc:Work
         rdf:about=""
         id="Work6">
        <dc:format
           id="format7">image/svg+xml</dc:format>
        <dc:type
           id="type9"
           rdf:resource="http://purl.org/dc/dcmitype/StillImage" />
        <dc:title
           id="title1311">Tastiera Dura Logo</dc:title>
        <dc:creator
           id="creator1313">
          <cc:Agent
             id="Agent1315">
            <dc:title
               id="title1317">Thien-Thi Nguyen</dc:title>
          </cc:Agent>
        </dc:creator>
        <dc:rights
           id="rights1319">
          <cc:Agent
             id="Agent1321">
            <dc:title
               id="title1323">Thien-Thi Nguyen</dc:title>
          </cc:Agent>
        </dc:rights>
        <dc:publisher
           id="publisher1325">
          <cc:Agent
             id="Agent1327">
            <dc:title
               id="title1329">Thien-Thi Nguyen</dc:title>
          </cc:Agent>
        </dc:publisher>
        <dc:description
           id="description1331">stylized &quot;ESC key&quot; from a keyboard, behind a red circle-with-backslash, on a white background</dc:description>
        <dc:date
           id="date1333">2007-02-17</dc:date>
        <dc:identifier
           id="identifier1335">http://www.gnuvola.it/free-software/tastiera-dura/logo.svg</dc:identifier>
        <dc:language
           id="language1337">it</dc:language>
        <cc:license
           id="license1339"
           rdf:resource="http://creativecommons.org/licenses/GPL/2.0/" />
      </cc:Work>
      <cc:License
         rdf:about="http://creativecommons.org/licenses/GPL/2.0/"
         id="License1341">
        <cc:permits
           rdf:resource="http://web.resource.org/cc/Reproduction"
           id="permits1343" />
        <cc:permits
           rdf:resource="http://web.resource.org/cc/Distribution"
           id="permits1345" />
        <cc:requires
           rdf:resource="http://web.resource.org/cc/Notice"
           id="requires1347" />
        <cc:permits
           rdf:resource="http://web.resource.org/cc/DerivativeWorks"
           id="permits1349" />
        <cc:requires
           rdf:resource="http://web.resource.org/cc/ShareAlike"
           id="requires1351" />
        <cc:requires
           rdf:resource="http://web.resource.org/cc/SourceCode"
           id="requires1353" />
      </cc:License>
    </rdf:RDF>
  </metadata>
  <g
     style="display:inline"
     inkscape:label="background"
     id="layer2"
     inkscape:groupmode="layer">
    <path
       sodipodi:type="arc"
       style="fill:#ffffff;fill-opacity:1.0000000;fill-rule:evenodd;stroke:none;stroke-width:17.725000;stroke-linecap:round;stroke-linejoin:miter;stroke-miterlimit:4.0000000;stroke-opacity:1.0000000"
       id="path2100"
       sodipodi:cx="208.78496"
       sodipodi:cy="207.54662"
       sodipodi:rx="192.43881"
       sodipodi:ry="192.43881"
       d="M 401.22377 207.54662 A 192.43881 192.43881 0 1 1  16.346146,207.54662 A 192.43881 192.43881 0 1 1  401.22377 207.54662 z"
       transform="matrix(1.015444,0.000000,0.000000,1.015444,0.738226,0.262013)" />
    <g
       id="g1350"
       transform="matrix(-1.000000,0.000000,0.000000,1.000000,427.4024,0.000000)">
      <g
         transform="matrix(-0.858469,0.000000,0.683409,0.833334,695.4239,43.71953)"
         id="g2835">
        <rect
           y="68.207314"
           x="546.28107"
           height="163.60701"
           width="266.20804"
           id="rect2075"
           style="fill:#000000;fill-opacity:1.0000000;fill-rule:evenodd;stroke:none;stroke-width:2.6250007;stroke-linecap:round;stroke-linejoin:miter;stroke-miterlimit:4.0000000;stroke-opacity:1.0000000" />
        <text
           transform="scale(0.955562,1.046504)"
           id="text1311"
           y="198.3121"
           x="580.1601"
           style="font-size:152.89944;font-style:normal;font-weight:normal;fill:#ffff00;fill-opacity:1.0000000;stroke:#00ff00;stroke-width:3.1035428;stroke-linecap:butt;stroke-linejoin:miter;stroke-miterlimit:4.0000000;stroke-opacity:1.0000000;font-family:Bitstream Vera Sans"
           xml:space="preserve"><tspan
             y="198.31210"
             x="580.16010"
             id="tspan1313"
             sodipodi:role="line">Esc</tspan></text>
      </g>
      <rect
         transform="matrix(0.630578,0.776126,0.000000,1.000000,0.000000,0.000000)"
         y="57.693268"
         x="67.430000"
         height="87.811737"
         width="172.39928"
         id="rect2840"
         style="fill:#000000;fill-opacity:1.0000000;fill-rule:evenodd;stroke:none;stroke-width:2.6250007;stroke-linecap:round;stroke-linejoin:miter;stroke-miterlimit:4.0000000;stroke-opacity:1.0000000" />
      <rect
         y="243.83080"
         x="158.37219"
         height="89.243217"
         width="226.15080"
         id="rect2842"
         style="fill:#000000;fill-opacity:1.0000000;fill-rule:evenodd;stroke:none;stroke-width:2.6250007;stroke-linecap:round;stroke-linejoin:miter;stroke-miterlimit:4.0000000;stroke-opacity:1.0000000" />
    </g>
  </g>
  <g
     style="display:inline"
     inkscape:label="foreground"
     id="layer3"
     inkscape:groupmode="layer">
    <path
       transform="matrix(2.693424,0.000000,0.000000,2.693424,65.02755,-163.3834)"
       d="M 130.27389 139.68532 A 74.796036 74.796036 0 1 1  -19.318180,139.68532 A 74.796036 74.796036 0 1 1  130.27389 139.68532 z"
       sodipodi:ry="74.796036"
       sodipodi:rx="74.796036"
       sodipodi:cy="139.68532"
       sodipodi:cx="55.477856"
       id="path1314"
       style="fill:none;fill-opacity:0.92021275;fill-rule:evenodd;stroke:#ff0000;stroke-width:6.5808415;stroke-linecap:round;stroke-linejoin:miter;stroke-miterlimit:4.0000000;stroke-opacity:1.0000000;display:inline"
       sodipodi:type="arc" />
    <path
       inkscape:export-ydpi="90.080002"
       inkscape:export-xdpi="90.080002"
       id="path2835"
       d="M 367.71408,344.56379 L 62.199799,84.204122"
       style="opacity:1.0000000;fill:none;fill-opacity:0.75000000;fill-rule:evenodd;stroke:#ff0000;stroke-width:17.724997;stroke-linecap:butt;stroke-linejoin:miter;stroke-miterlimit:4.0000000;stroke-opacity:1.0000000;display:inline" />
  </g>
</svg>
